﻿{
    "apiKey": "MERCHANT_KEY",
    "booking":{
        "pickupDetail": {
            "name": "PICKUP_NAME",
            "phone": "PICKUP_PHONE",
            "address": "PICKUP_ADDRESS"
        },
        "dropoffDetail": {
            "name": "DROPOFF_NAME",
            "phone": "DROPOFF_PHONE",
            "address": "DROPOFF_ADDRESS"
        }
    }
}    
